{
  "TOPUP": {
    "id": 1,
    "name": "TOPUP"
  },
  "TRANSFER": {
    "id": 2,
    "name": "TRANSFER"
  },
  "PAYMENT": {
    "id": 3,
    "name": "PAYMENT"
  },
  "WITHDRAW": {
    "id": 4,
    "name": "WITHDRAW"
  },
  "ADJUSTMENT": {
    "id": 5,
    "name": "ADJUSTMENT"
  }
}